{
    "KPlugin": {
        "Authors": [
            {
                "Email": "sebas@kde.org",
                "Name": "Sebastian Kügler",
                "Name[az]": "Sebastian Kügler",
                "Name[ca@valencia]": "Sebastian Kügler",
                "Name[ca]": "Sebastian Kügler",
                "Name[cs]": "Sebastian Kügler",
                "Name[en_GB]": "Sebastian Kügler",
                "Name[es]": "Sebastian Kügler",
                "Name[eu]": "Sebastian Kügler",
                "Name[fi]": "Sebastian Kügler",
                "Name[fr]": "Sebastian Kügler",
                "Name[it]": "Sebastian Kügler",
                "Name[ko]": "Sebastian Kügler",
                "Name[nl]": "Sebastian Kügler",
                "Name[pl]": "Sebastian Kügler",
                "Name[pt]": "Sebastian Kügler",
                "Name[ru]": "Sebastian Kügler",
                "Name[sl]": "Sebastian Kügler",
                "Name[sv]": "Sebastian Kügler",
                "Name[tr]": "Sebastian Kügler",
                "Name[uk]": "Sebastian Kügler",
                "Name[vi]": "Sebastian Kügler",
                "Name[x-test]": "xxSebastian Küglerxx",
                "Name[zh_CN]": "Sebastian Kügler"
            }
        ],
        "Category": "Graphics",
        "Description": "Futzing with Visual Effects",
        "Description[az]": "Vizual Effektlər nümunəsi",
        "Description[ca@valencia]": "Jugant amb els efectes visuals",
        "Description[ca]": "Jugant amb els efectes visuals",
        "Description[en_GB]": "Futzing with Visual Effects",
        "Description[es]": "Jugando con efectos visuales",
        "Description[eu]": "Denbora xahutu ikus-efektuekin",
        "Description[fr]": "Les effets visuels à la louche",
        "Description[it]": "Divertirsi con gli effetti visuali",
        "Description[ko]": "시각 효과 가지고 놀기",
        "Description[nl]": "Tijd verspillen met visuele effecten",
        "Description[pl]": "Grzebanie przy efektach wizualnych",
        "Description[pt]": "Brincar com Efeitos Visuais",
        "Description[sl]": "Preigravanje z vizualnimi učinki",
        "Description[sv]": "Greja med visuella effekter",
        "Description[tr]": "Görsel Efektlerle Oynaşma",
        "Description[uk]": "Маніпулювання візуальними ефектами",
        "Description[vi]": "Thử các hiệu ứng trực quan",
        "Description[x-test]": "xxFutzing with Visual Effectsxx",
        "Description[zh_CN]": "测试各种视觉效果",
        "Icon": "plasma",
        "Id": "org.kde.example.testshaders",
        "License": "GPLv2+",
        "Name": "Shader Test",
        "Name[az]": "Şeyderin testi",
        "Name[ca@valencia]": "Prova de «shader»",
        "Name[ca]": "Prova de «shader»",
        "Name[en_GB]": "Shader Test",
        "Name[es]": "Prueba de sombreado",
        "Name[eu]": "Itzaldura-proba",
        "Name[fi]": "Varjostustesti",
        "Name[fr]": "Test de shader",
        "Name[it]": "Prova shader",
        "Name[ko]": "셰이더 테스트",
        "Name[nl]": "Test van schaduw",
        "Name[pl]": "Próba cieniowania",
        "Name[pt]": "Teste de Sombreado",
        "Name[sl]": "Preizkus osenčevalnika",
        "Name[sv]": "Skuggningstest",
        "Name[tr]": "Gölgelendirici Sınaması",
        "Name[uk]": "Тестування підпрограм побудови тіней",
        "Name[vi]": "Kiểm thử trình đánh bóng",
        "Name[x-test]": "xxShader Testxx",
        "Name[zh_CN]": "着色器测试",
        "ServiceTypes": [
            "Plasma/Applet"
        ],
        "Version": "",
        "Website": ""
    },
    "Keywords": "",
    "X-KDE-ParentApp": "",
    "X-Plasma-API": "declarativeappletscript",
    "X-Plasma-MainScript": "ui/testshaderapplet.qml"
}
